%YAML 1.1
%TAG !u! tag:unity3d.com,2011:
--- !u!1045 &1
EditorBuildSettings:
  m_ObjectHideFlags: 0
  serializedVersion: 2
  m_Scenes:
  - enabled: 1
    path: Assets/Scenes/Menu.unity
    guid: 034930735d5dc5949a146a33428665f6
  - enabled: 1
    path: Assets/Scenes/Game.unity
    guid: 2ed8b827120dfa0479efe76c8781fd96
  - enabled: 1
    path: Assets/Scenes/Congradulation.unity
    guid: 17b5c3ef638b82941a170e998fa72048
  m_configObjects: {}
